Chapter 8 Text mining | R cookbook for the casual dabbler (2nd edition)
…
# Get NRC lexicon & filter for "joy"
nrcjoy <- tidytext::get_sentiments("nrc") %>%
  filter(sentiment == "joy")

# Join words with NRC joy sentiment list & count occurrences
bible_joy_words <- bible_tidy %>%
  inner_join(nrcjoy, by = "word") %>%
  count(word, sort = TRUE)

# View top joyful words
print(bible_joy_words)

## # A tibble: 264 × 2
##    word         n
##    <chr>    <int>
##  1 god       4446
##  2 good       720
##  3 art        494
##  4 peace      429
##  5 found      404
##  6 glory      402
##  7 daughter   324
##  8 pray       313
##  9 love       310
## 10 blessed    302
## # ℹ 254 more rows
