Chapter 18 UK Economic Data | R cookbook for the casual dabbler (2nd edition)
…
ons_datasets()

## # A tibble: 60 × 23
##    contacts     description      keywords id    last_updated links$editions$href
##    <list>       <chr>            <list>   <chr> <chr>        <chr>              
##  1 <df [1 × 3]> Seasonally and … <chr>    well… 2023-12-13T… https://api.beta.o…
##  2 <df [1 × 3]> Estimates of li… <chr>    well… 2023-12-13T… https://api.beta.o…
##  3 <df [1 × 3]> Provisional cou… <chr>    week… 2025-05-30T… https://api.beta.o…
##  4 <df [1 × 3]> Provisional cou… <chr>    week… 2024-01-09T… https://api.beta.o…
##  5 <df [1 × 3]> Provisional cou… <chr>    week… 2024-01-09T… https://api.beta.o…
##  6 <df [1 × 3]> Provisional cou… <chr>    week… 2025-05-30T… https://api.beta.o…
##  7 <df [1 × 3]> These data seri… <NULL>   uk-s… 2024-05-16T… https://api.beta.o…
##  8 <df [1 × 3]> The data contai… <chr>    uk-b… 2022-11-03T… https://api.beta.o…
##  9 <df [1 × 3]> Experimental da… <NULL>   traf… 2024-06-20T… https://api.beta.o…
## 10 <df [1 × 3]> Country by comm… <chr>    trade 2025-05-19T… https://api.beta.o…
## # ℹ 50 more rows
## # ℹ 20 more variables: links$latest_version <df[,2]>, $self <df[,1]>,
## #   $taxonomy <df[,1]>, methodologies <list>, national_statistic <lgl>,
## #   next_release <chr>, qmi <tibble[,1]>, related_datasets <list>,
## #   release_frequency <chr>, state <chr>, title <chr>, unit_of_measure <chr>,
## #   type <chr>, publications <list>, license <chr>, is_based_on <df[,2]>,
## #   canonical_topic <chr>, subtopics <list>, survey <chr>, …
…
